('C:\\Users\\jesus_castillo\\Documents\\Proyectos\\Python\\build\\Main\\PYZ-00.pyz',
 [('ntpath',
   'c:\\users\\jesus_castillo\\appdata\\local\\programs\\python\\python37-32\\lib\\ntpath.py',
   'PYMODULE'),
  ('_strptime',
   'c:\\users\\jesus_castillo\\appdata\\local\\programs\\python\\python37-32\\lib\\_strptime.py',
   'PYMODULE'),
  ('datetime',
   'c:\\users\\jesus_castillo\\appdata\\local\\programs\\python\\python37-32\\lib\\datetime.py',
   'PYMODULE'),
  ('tracemalloc',
   'c:\\users\\jesus_castillo\\appdata\\local\\programs\\python\\python37-32\\lib\\tracemalloc.py',
   'PYMODULE'),
  ('_py_abc',
   'c:\\users\\jesus_castillo\\appdata\\local\\programs\\python\\python37-32\\lib\\_py_abc.py',
   'PYMODULE'),
  ('typing',
   'c:\\users\\jesus_castillo\\appdata\\local\\programs\\python\\python37-32\\lib\\typing.py',
   'PYMODULE'),
  ('__future__',
   'c:\\users\\jesus_castillo\\appdata\\local\\programs\\python\\python37-32\\lib\\__future__.py',
   'PYMODULE'),
  ('difflib',
   'c:\\users\\jesus_castillo\\appdata\\local\\programs\\python\\python37-32\\lib\\difflib.py',
   'PYMODULE'),
  ('ast',
   'c:\\users\\jesus_castillo\\appdata\\local\\programs\\python\\python37-32\\lib\\ast.py',
   'PYMODULE'),
  ('inspect',
   'c:\\users\\jesus_castillo\\appdata\\local\\programs\\python\\python37-32\\lib\\inspect.py',
   'PYMODULE'),
  ('cmd',
   'c:\\users\\jesus_castillo\\appdata\\local\\programs\\python\\python37-32\\lib\\cmd.py',
   'PYMODULE'),
  ('bdb',
   'c:\\users\\jesus_castillo\\appdata\\local\\programs\\python\\python37-32\\lib\\bdb.py',
   'PYMODULE'),
  ('opcode',
   'c:\\users\\jesus_castillo\\appdata\\local\\programs\\python\\python37-32\\lib\\opcode.py',
   'PYMODULE'),
  ('dis',
   'c:\\users\\jesus_castillo\\appdata\\local\\programs\\python\\python37-32\\lib\\dis.py',
   'PYMODULE'),
  ('codeop',
   'c:\\users\\jesus_castillo\\appdata\\local\\programs\\python\\python37-32\\lib\\codeop.py',
   'PYMODULE'),
  ('code',
   'c:\\users\\jesus_castillo\\appdata\\local\\programs\\python\\python37-32\\lib\\code.py',
   'PYMODULE'),
  ('glob',
   'c:\\users\\jesus_castillo\\appdata\\local\\programs\\python\\python37-32\\lib\\glob.py',
   'PYMODULE'),
  ('shlex',
   'c:\\users\\jesus_castillo\\appdata\\local\\programs\\python\\python37-32\\lib\\shlex.py',
   'PYMODULE'),
  ('runpy',
   'c:\\users\\jesus_castillo\\appdata\\local\\programs\\python\\python37-32\\lib\\runpy.py',
   'PYMODULE'),
  ('importlib._bootstrap',
   'c:\\users\\jesus_castillo\\appdata\\local\\programs\\python\\python37-32\\lib\\importlib\\_bootstrap.py',
   'PYMODULE'),
  ('importlib._bootstrap_external',
   'c:\\users\\jesus_castillo\\appdata\\local\\programs\\python\\python37-32\\lib\\importlib\\_bootstrap_external.py',
   'PYMODULE'),
  ('importlib.machinery',
   'c:\\users\\jesus_castillo\\appdata\\local\\programs\\python\\python37-32\\lib\\importlib\\machinery.py',
   'PYMODULE'),
  ('importlib.util',
   'c:\\users\\jesus_castillo\\appdata\\local\\programs\\python\\python37-32\\lib\\importlib\\util.py',
   'PYMODULE'),
  ('importlib.abc',
   'c:\\users\\jesus_castillo\\appdata\\local\\programs\\python\\python37-32\\lib\\importlib\\abc.py',
   'PYMODULE'),
  ('importlib',
   'c:\\users\\jesus_castillo\\appdata\\local\\programs\\python\\python37-32\\lib\\importlib\\__init__.py',
   'PYMODULE'),
  ('pkgutil',
   'c:\\users\\jesus_castillo\\appdata\\local\\programs\\python\\python37-32\\lib\\pkgutil.py',
   'PYMODULE'),
  ('xml',
   'c:\\users\\jesus_castillo\\appdata\\local\\programs\\python\\python37-32\\lib\\xml\\__init__.py',
   'PYMODULE'),
  ('xml.sax.expatreader',
   'c:\\users\\jesus_castillo\\appdata\\local\\programs\\python\\python37-32\\lib\\xml\\sax\\expatreader.py',
   'PYMODULE'),
  ('xml.sax.saxutils',
   'c:\\users\\jesus_castillo\\appdata\\local\\programs\\python\\python37-32\\lib\\xml\\sax\\saxutils.py',
   'PYMODULE'),
  ('urllib.request',
   'c:\\users\\jesus_castillo\\appdata\\local\\programs\\python\\python37-32\\lib\\urllib\\request.py',
   'PYMODULE'),
  ('getpass',
   'c:\\users\\jesus_castillo\\appdata\\local\\programs\\python\\python37-32\\lib\\getpass.py',
   'PYMODULE'),
  ('nturl2path',
   'c:\\users\\jesus_castillo\\appdata\\local\\programs\\python\\python37-32\\lib\\nturl2path.py',
   'PYMODULE'),
  ('ftplib',
   'c:\\users\\jesus_castillo\\appdata\\local\\programs\\python\\python37-32\\lib\\ftplib.py',
   'PYMODULE'),
  ('netrc',
   'c:\\users\\jesus_castillo\\appdata\\local\\programs\\python\\python37-32\\lib\\netrc.py',
   'PYMODULE'),
  ('http.cookiejar',
   'c:\\users\\jesus_castillo\\appdata\\local\\programs\\python\\python37-32\\lib\\http\\cookiejar.py',
   'PYMODULE'),
  ('urllib.response',
   'c:\\users\\jesus_castillo\\appdata\\local\\programs\\python\\python37-32\\lib\\urllib\\response.py',
   'PYMODULE'),
  ('urllib.error',
   'c:\\users\\jesus_castillo\\appdata\\local\\programs\\python\\python37-32\\lib\\urllib\\error.py',
   'PYMODULE'),
  ('xml.sax',
   'c:\\users\\jesus_castillo\\appdata\\local\\programs\\python\\python37-32\\lib\\xml\\sax\\__init__.py',
   'PYMODULE'),
  ('xml.sax.handler',
   'c:\\users\\jesus_castillo\\appdata\\local\\programs\\python\\python37-32\\lib\\xml\\sax\\handler.py',
   'PYMODULE'),
  ('xml.sax._exceptions',
   'c:\\users\\jesus_castillo\\appdata\\local\\programs\\python\\python37-32\\lib\\xml\\sax\\_exceptions.py',
   'PYMODULE'),
  ('xml.sax.xmlreader',
   'c:\\users\\jesus_castillo\\appdata\\local\\programs\\python\\python37-32\\lib\\xml\\sax\\xmlreader.py',
   'PYMODULE'),
  ('xml.parsers',
   'c:\\users\\jesus_castillo\\appdata\\local\\programs\\python\\python37-32\\lib\\xml\\parsers\\__init__.py',
   'PYMODULE'),
  ('xml.parsers.expat',
   'c:\\users\\jesus_castillo\\appdata\\local\\programs\\python\\python37-32\\lib\\xml\\parsers\\expat.py',
   'PYMODULE'),
  ('plistlib',
   'c:\\users\\jesus_castillo\\appdata\\local\\programs\\python\\python37-32\\lib\\plistlib.py',
   'PYMODULE'),
  ('platform',
   'c:\\users\\jesus_castillo\\appdata\\local\\programs\\python\\python37-32\\lib\\platform.py',
   'PYMODULE'),
  ('token',
   'c:\\users\\jesus_castillo\\appdata\\local\\programs\\python\\python37-32\\lib\\token.py',
   'PYMODULE'),
  ('tokenize',
   'c:\\users\\jesus_castillo\\appdata\\local\\programs\\python\\python37-32\\lib\\tokenize.py',
   'PYMODULE'),
  ('urllib.parse',
   'c:\\users\\jesus_castillo\\appdata\\local\\programs\\python\\python37-32\\lib\\urllib\\parse.py',
   'PYMODULE'),
  ('tempfile',
   'c:\\users\\jesus_castillo\\appdata\\local\\programs\\python\\python37-32\\lib\\tempfile.py',
   'PYMODULE'),
  ('tty',
   'c:\\users\\jesus_castillo\\appdata\\local\\programs\\python\\python37-32\\lib\\tty.py',
   'PYMODULE'),
  ('pydoc_data',
   'c:\\users\\jesus_castillo\\appdata\\local\\programs\\python\\python37-32\\lib\\pydoc_data\\__init__.py',
   'PYMODULE'),
  ('pydoc_data.topics',
   'c:\\users\\jesus_castillo\\appdata\\local\\programs\\python\\python37-32\\lib\\pydoc_data\\topics.py',
   'PYMODULE'),
  ('html.entities',
   'c:\\users\\jesus_castillo\\appdata\\local\\programs\\python\\python37-32\\lib\\html\\entities.py',
   'PYMODULE'),
  ('html',
   'c:\\users\\jesus_castillo\\appdata\\local\\programs\\python\\python37-32\\lib\\html\\__init__.py',
   'PYMODULE'),
  ('ssl',
   'c:\\users\\jesus_castillo\\appdata\\local\\programs\\python\\python37-32\\lib\\ssl.py',
   'PYMODULE'),
  ('http.client',
   'c:\\users\\jesus_castillo\\appdata\\local\\programs\\python\\python37-32\\lib\\http\\client.py',
   'PYMODULE'),
  ('mimetypes',
   'c:\\users\\jesus_castillo\\appdata\\local\\programs\\python\\python37-32\\lib\\mimetypes.py',
   'PYMODULE'),
  ('socketserver',
   'c:\\users\\jesus_castillo\\appdata\\local\\programs\\python\\python37-32\\lib\\socketserver.py',
   'PYMODULE'),
  ('http',
   'c:\\users\\jesus_castillo\\appdata\\local\\programs\\python\\python37-32\\lib\\http\\__init__.py',
   'PYMODULE'),
  ('http.server',
   'c:\\users\\jesus_castillo\\appdata\\local\\programs\\python\\python37-32\\lib\\http\\server.py',
   'PYMODULE'),
  ('optparse',
   'c:\\users\\jesus_castillo\\appdata\\local\\programs\\python\\python37-32\\lib\\optparse.py',
   'PYMODULE'),
  ('uu',
   'c:\\users\\jesus_castillo\\appdata\\local\\programs\\python\\python37-32\\lib\\uu.py',
   'PYMODULE'),
  ('email.feedparser',
   'c:\\users\\jesus_castillo\\appdata\\local\\programs\\python\\python37-32\\lib\\email\\feedparser.py',
   'PYMODULE'),
  ('email.parser',
   'c:\\users\\jesus_castillo\\appdata\\local\\programs\\python\\python37-32\\lib\\email\\parser.py',
   'PYMODULE'),
  ('email',
   'c:\\users\\jesus_castillo\\appdata\\local\\programs\\python\\python37-32\\lib\\email\\__init__.py',
   'PYMODULE'),
  ('calendar',
   'c:\\users\\jesus_castillo\\appdata\\local\\programs\\python\\python37-32\\lib\\calendar.py',
   'PYMODULE'),
  ('email._parseaddr',
   'c:\\users\\jesus_castillo\\appdata\\local\\programs\\python\\python37-32\\lib\\email\\_parseaddr.py',
   'PYMODULE'),
  ('email.utils',
   'c:\\users\\jesus_castillo\\appdata\\local\\programs\\python\\python37-32\\lib\\email\\utils.py',
   'PYMODULE'),
  ('email.errors',
   'c:\\users\\jesus_castillo\\appdata\\local\\programs\\python\\python37-32\\lib\\email\\errors.py',
   'PYMODULE'),
  ('email.header',
   'c:\\users\\jesus_castillo\\appdata\\local\\programs\\python\\python37-32\\lib\\email\\header.py',
   'PYMODULE'),
  ('email._policybase',
   'c:\\users\\jesus_castillo\\appdata\\local\\programs\\python\\python37-32\\lib\\email\\_policybase.py',
   'PYMODULE'),
  ('email.base64mime',
   'c:\\users\\jesus_castillo\\appdata\\local\\programs\\python\\python37-32\\lib\\email\\base64mime.py',
   'PYMODULE'),
  ('email.encoders',
   'c:\\users\\jesus_castillo\\appdata\\local\\programs\\python\\python37-32\\lib\\email\\encoders.py',
   'PYMODULE'),
  ('email.charset',
   'c:\\users\\jesus_castillo\\appdata\\local\\programs\\python\\python37-32\\lib\\email\\charset.py',
   'PYMODULE'),
  ('email._encoded_words',
   'c:\\users\\jesus_castillo\\appdata\\local\\programs\\python\\python37-32\\lib\\email\\_encoded_words.py',
   'PYMODULE'),
  ('hashlib',
   'c:\\users\\jesus_castillo\\appdata\\local\\programs\\python\\python37-32\\lib\\hashlib.py',
   'PYMODULE'),
  ('bisect',
   'c:\\users\\jesus_castillo\\appdata\\local\\programs\\python\\python37-32\\lib\\bisect.py',
   'PYMODULE'),
  ('random',
   'c:\\users\\jesus_castillo\\appdata\\local\\programs\\python\\python37-32\\lib\\random.py',
   'PYMODULE'),
  ('email.generator',
   'c:\\users\\jesus_castillo\\appdata\\local\\programs\\python\\python37-32\\lib\\email\\generator.py',
   'PYMODULE'),
  ('email.iterators',
   'c:\\users\\jesus_castillo\\appdata\\local\\programs\\python\\python37-32\\lib\\email\\iterators.py',
   'PYMODULE'),
  ('urllib',
   'c:\\users\\jesus_castillo\\appdata\\local\\programs\\python\\python37-32\\lib\\urllib\\__init__.py',
   'PYMODULE'),
  ('email._header_value_parser',
   'c:\\users\\jesus_castillo\\appdata\\local\\programs\\python\\python37-32\\lib\\email\\_header_value_parser.py',
   'PYMODULE'),
  ('email.headerregistry',
   'c:\\users\\jesus_castillo\\appdata\\local\\programs\\python\\python37-32\\lib\\email\\headerregistry.py',
   'PYMODULE'),
  ('email.quoprimime',
   'c:\\users\\jesus_castillo\\appdata\\local\\programs\\python\\python37-32\\lib\\email\\quoprimime.py',
   'PYMODULE'),
  ('email.contentmanager',
   'c:\\users\\jesus_castillo\\appdata\\local\\programs\\python\\python37-32\\lib\\email\\contentmanager.py',
   'PYMODULE'),
  ('email.policy',
   'c:\\users\\jesus_castillo\\appdata\\local\\programs\\python\\python37-32\\lib\\email\\policy.py',
   'PYMODULE'),
  ('email.message',
   'c:\\users\\jesus_castillo\\appdata\\local\\programs\\python\\python37-32\\lib\\email\\message.py',
   'PYMODULE'),
  ('lzma',
   'c:\\users\\jesus_castillo\\appdata\\local\\programs\\python\\python37-32\\lib\\lzma.py',
   'PYMODULE'),
  ('gzip',
   'c:\\users\\jesus_castillo\\appdata\\local\\programs\\python\\python37-32\\lib\\gzip.py',
   'PYMODULE'),
  ('tarfile',
   'c:\\users\\jesus_castillo\\appdata\\local\\programs\\python\\python37-32\\lib\\tarfile.py',
   'PYMODULE'),
  ('py_compile',
   'c:\\users\\jesus_castillo\\appdata\\local\\programs\\python\\python37-32\\lib\\py_compile.py',
   'PYMODULE'),
  ('zipfile',
   'c:\\users\\jesus_castillo\\appdata\\local\\programs\\python\\python37-32\\lib\\zipfile.py',
   'PYMODULE'),
  ('shutil',
   'c:\\users\\jesus_castillo\\appdata\\local\\programs\\python\\python37-32\\lib\\shutil.py',
   'PYMODULE'),
  ('socket',
   'c:\\users\\jesus_castillo\\appdata\\local\\programs\\python\\python37-32\\lib\\socket.py',
   'PYMODULE'),
  ('webbrowser',
   'c:\\users\\jesus_castillo\\appdata\\local\\programs\\python\\python37-32\\lib\\webbrowser.py',
   'PYMODULE'),
  ('pydoc',
   'c:\\users\\jesus_castillo\\appdata\\local\\programs\\python\\python37-32\\lib\\pydoc.py',
   'PYMODULE'),
  ('pdb',
   'c:\\users\\jesus_castillo\\appdata\\local\\programs\\python\\python37-32\\lib\\pdb.py',
   'PYMODULE'),
  ('unittest.util',
   'c:\\users\\jesus_castillo\\appdata\\local\\programs\\python\\python37-32\\lib\\unittest\\util.py',
   'PYMODULE'),
  ('unittest.result',
   'c:\\users\\jesus_castillo\\appdata\\local\\programs\\python\\python37-32\\lib\\unittest\\result.py',
   'PYMODULE'),
  ('string',
   'c:\\users\\jesus_castillo\\appdata\\local\\programs\\python\\python37-32\\lib\\string.py',
   'PYMODULE'),
  ('_compat_pickle',
   'c:\\users\\jesus_castillo\\appdata\\local\\programs\\python\\python37-32\\lib\\_compat_pickle.py',
   'PYMODULE'),
  ('pickle',
   'c:\\users\\jesus_castillo\\appdata\\local\\programs\\python\\python37-32\\lib\\pickle.py',
   'PYMODULE'),
  ('logging',
   'c:\\users\\jesus_castillo\\appdata\\local\\programs\\python\\python37-32\\lib\\logging\\__init__.py',
   'PYMODULE'),
  ('pprint',
   'c:\\users\\jesus_castillo\\appdata\\local\\programs\\python\\python37-32\\lib\\pprint.py',
   'PYMODULE'),
  ('unittest.case',
   'c:\\users\\jesus_castillo\\appdata\\local\\programs\\python\\python37-32\\lib\\unittest\\case.py',
   'PYMODULE'),
  ('unittest.suite',
   'c:\\users\\jesus_castillo\\appdata\\local\\programs\\python\\python37-32\\lib\\unittest\\suite.py',
   'PYMODULE'),
  ('unittest.loader',
   'c:\\users\\jesus_castillo\\appdata\\local\\programs\\python\\python37-32\\lib\\unittest\\loader.py',
   'PYMODULE'),
  ('unittest.runner',
   'c:\\users\\jesus_castillo\\appdata\\local\\programs\\python\\python37-32\\lib\\unittest\\runner.py',
   'PYMODULE'),
  ('unittest.main',
   'c:\\users\\jesus_castillo\\appdata\\local\\programs\\python\\python37-32\\lib\\unittest\\main.py',
   'PYMODULE'),
  ('unittest.signals',
   'c:\\users\\jesus_castillo\\appdata\\local\\programs\\python\\python37-32\\lib\\unittest\\signals.py',
   'PYMODULE'),
  ('unittest',
   'c:\\users\\jesus_castillo\\appdata\\local\\programs\\python\\python37-32\\lib\\unittest\\__init__.py',
   'PYMODULE'),
  ('textwrap',
   'c:\\users\\jesus_castillo\\appdata\\local\\programs\\python\\python37-32\\lib\\textwrap.py',
   'PYMODULE'),
  ('argparse',
   'c:\\users\\jesus_castillo\\appdata\\local\\programs\\python\\python37-32\\lib\\argparse.py',
   'PYMODULE'),
  ('doctest',
   'c:\\users\\jesus_castillo\\appdata\\local\\programs\\python\\python37-32\\lib\\doctest.py',
   'PYMODULE'),
  ('quopri',
   'c:\\users\\jesus_castillo\\appdata\\local\\programs\\python\\python37-32\\lib\\quopri.py',
   'PYMODULE'),
  ('stringprep',
   'c:\\users\\jesus_castillo\\appdata\\local\\programs\\python\\python37-32\\lib\\stringprep.py',
   'PYMODULE'),
  ('_compression',
   'c:\\users\\jesus_castillo\\appdata\\local\\programs\\python\\python37-32\\lib\\_compression.py',
   'PYMODULE'),
  ('bz2',
   'c:\\users\\jesus_castillo\\appdata\\local\\programs\\python\\python37-32\\lib\\bz2.py',
   'PYMODULE'),
  ('struct',
   'c:\\users\\jesus_castillo\\appdata\\local\\programs\\python\\python37-32\\lib\\struct.py',
   'PYMODULE'),
  ('stat',
   'c:\\users\\jesus_castillo\\appdata\\local\\programs\\python\\python37-32\\lib\\stat.py',
   'PYMODULE'),
  ('genericpath',
   'c:\\users\\jesus_castillo\\appdata\\local\\programs\\python\\python37-32\\lib\\genericpath.py',
   'PYMODULE'),
  ('posixpath',
   'c:\\users\\jesus_castillo\\appdata\\local\\programs\\python\\python37-32\\lib\\posixpath.py',
   'PYMODULE'),
  ('signal',
   'c:\\users\\jesus_castillo\\appdata\\local\\programs\\python\\python37-32\\lib\\signal.py',
   'PYMODULE'),
  ('contextlib',
   'c:\\users\\jesus_castillo\\appdata\\local\\programs\\python\\python37-32\\lib\\contextlib.py',
   'PYMODULE'),
  ('_threading_local',
   'c:\\users\\jesus_castillo\\appdata\\local\\programs\\python\\python37-32\\lib\\_threading_local.py',
   'PYMODULE'),
  ('threading',
   'c:\\users\\jesus_castillo\\appdata\\local\\programs\\python\\python37-32\\lib\\threading.py',
   'PYMODULE'),
  ('selectors',
   'c:\\users\\jesus_castillo\\appdata\\local\\programs\\python\\python37-32\\lib\\selectors.py',
   'PYMODULE'),
  ('subprocess',
   'c:\\users\\jesus_castillo\\appdata\\local\\programs\\python\\python37-32\\lib\\subprocess.py',
   'PYMODULE'),
  ('gettext',
   'c:\\users\\jesus_castillo\\appdata\\local\\programs\\python\\python37-32\\lib\\gettext.py',
   'PYMODULE'),
  ('getopt',
   'c:\\users\\jesus_castillo\\appdata\\local\\programs\\python\\python37-32\\lib\\getopt.py',
   'PYMODULE'),
  ('base64',
   'c:\\users\\jesus_castillo\\appdata\\local\\programs\\python\\python37-32\\lib\\base64.py',
   'PYMODULE'),
  ('copy',
   'c:\\users\\jesus_castillo\\appdata\\local\\programs\\python\\python37-32\\lib\\copy.py',
   'PYMODULE'),
  ('json',
   'c:\\users\\jesus_castillo\\appdata\\local\\programs\\python\\python37-32\\lib\\json\\__init__.py',
   'PYMODULE'),
  ('json.encoder',
   'c:\\users\\jesus_castillo\\appdata\\local\\programs\\python\\python37-32\\lib\\json\\encoder.py',
   'PYMODULE'),
  ('json.decoder',
   'c:\\users\\jesus_castillo\\appdata\\local\\programs\\python\\python37-32\\lib\\json\\decoder.py',
   'PYMODULE'),
  ('json.scanner',
   'c:\\users\\jesus_castillo\\appdata\\local\\programs\\python\\python37-32\\lib\\json\\scanner.py',
   'PYMODULE'),
  ('listas',
   'C:\\Users\\jesus_castillo\\Documents\\Proyectos\\Python\\listas.py',
   'PYMODULE'),
  ('buscaRemplaza',
   'C:\\Users\\jesus_castillo\\Documents\\Proyectos\\Python\\buscaRemplaza.py',
   'PYMODULE'),
  ('bs4',
   'c:\\users\\jesus_castillo\\appdata\\local\\programs\\python\\python37-32\\lib\\site-packages\\bs4\\__init__.py',
   'PYMODULE'),
  ('bs4.element',
   'c:\\users\\jesus_castillo\\appdata\\local\\programs\\python\\python37-32\\lib\\site-packages\\bs4\\element.py',
   'PYMODULE'),
  ('bs4.formatter',
   'c:\\users\\jesus_castillo\\appdata\\local\\programs\\python\\python37-32\\lib\\site-packages\\bs4\\formatter.py',
   'PYMODULE'),
  ('soupsieve',
   'c:\\users\\jesus_castillo\\appdata\\local\\programs\\python\\python37-32\\lib\\site-packages\\soupsieve\\__init__.py',
   'PYMODULE'),
  ('soupsieve.css_parser',
   'c:\\users\\jesus_castillo\\appdata\\local\\programs\\python\\python37-32\\lib\\site-packages\\soupsieve\\css_parser.py',
   'PYMODULE'),
  ('soupsieve.css_match',
   'c:\\users\\jesus_castillo\\appdata\\local\\programs\\python\\python37-32\\lib\\site-packages\\soupsieve\\css_match.py',
   'PYMODULE'),
  ('soupsieve.css_types',
   'c:\\users\\jesus_castillo\\appdata\\local\\programs\\python\\python37-32\\lib\\site-packages\\soupsieve\\css_types.py',
   'PYMODULE'),
  ('soupsieve.util',
   'c:\\users\\jesus_castillo\\appdata\\local\\programs\\python\\python37-32\\lib\\site-packages\\soupsieve\\util.py',
   'PYMODULE'),
  ('soupsieve.__meta__',
   'c:\\users\\jesus_castillo\\appdata\\local\\programs\\python\\python37-32\\lib\\site-packages\\soupsieve\\__meta__.py',
   'PYMODULE'),
  ('bs4.dammit',
   'c:\\users\\jesus_castillo\\appdata\\local\\programs\\python\\python37-32\\lib\\site-packages\\bs4\\dammit.py',
   'PYMODULE'),
  ('bs4.builder',
   'c:\\users\\jesus_castillo\\appdata\\local\\programs\\python\\python37-32\\lib\\site-packages\\bs4\\builder\\__init__.py',
   'PYMODULE'),
  ('bs4.builder._lxml',
   'c:\\users\\jesus_castillo\\appdata\\local\\programs\\python\\python37-32\\lib\\site-packages\\bs4\\builder\\_lxml.py',
   'PYMODULE'),
  ('bs4.builder._html5lib',
   'c:\\users\\jesus_castillo\\appdata\\local\\programs\\python\\python37-32\\lib\\site-packages\\bs4\\builder\\_html5lib.py',
   'PYMODULE'),
  ('html5lib.treebuilders.base',
   'c:\\users\\jesus_castillo\\appdata\\local\\programs\\python\\python37-32\\lib\\site-packages\\html5lib\\treebuilders\\base.py',
   'PYMODULE'),
  ('six',
   'c:\\users\\jesus_castillo\\appdata\\local\\programs\\python\\python37-32\\lib\\site-packages\\six.py',
   'PYMODULE'),
  ('html5lib.treebuilders',
   'c:\\users\\jesus_castillo\\appdata\\local\\programs\\python\\python37-32\\lib\\site-packages\\html5lib\\treebuilders\\__init__.py',
   'PYMODULE'),
  ('html5lib.treebuilders.etree_lxml',
   'c:\\users\\jesus_castillo\\appdata\\local\\programs\\python\\python37-32\\lib\\site-packages\\html5lib\\treebuilders\\etree_lxml.py',
   'PYMODULE'),
  ('html5lib._ihatexml',
   'c:\\users\\jesus_castillo\\appdata\\local\\programs\\python\\python37-32\\lib\\site-packages\\html5lib\\_ihatexml.py',
   'PYMODULE'),
  ('html5lib.treebuilders.etree',
   'c:\\users\\jesus_castillo\\appdata\\local\\programs\\python\\python37-32\\lib\\site-packages\\html5lib\\treebuilders\\etree.py',
   'PYMODULE'),
  ('xml.dom.minidom',
   'c:\\users\\jesus_castillo\\appdata\\local\\programs\\python\\python37-32\\lib\\xml\\dom\\minidom.py',
   'PYMODULE'),
  ('xml.dom.pulldom',
   'c:\\users\\jesus_castillo\\appdata\\local\\programs\\python\\python37-32\\lib\\xml\\dom\\pulldom.py',
   'PYMODULE'),
  ('xml.dom.expatbuilder',
   'c:\\users\\jesus_castillo\\appdata\\local\\programs\\python\\python37-32\\lib\\xml\\dom\\expatbuilder.py',
   'PYMODULE'),
  ('xml.dom.NodeFilter',
   'c:\\users\\jesus_castillo\\appdata\\local\\programs\\python\\python37-32\\lib\\xml\\dom\\NodeFilter.py',
   'PYMODULE'),
  ('xml.dom.xmlbuilder',
   'c:\\users\\jesus_castillo\\appdata\\local\\programs\\python\\python37-32\\lib\\xml\\dom\\xmlbuilder.py',
   'PYMODULE'),
  ('xml.dom.minicompat',
   'c:\\users\\jesus_castillo\\appdata\\local\\programs\\python\\python37-32\\lib\\xml\\dom\\minicompat.py',
   'PYMODULE'),
  ('xml.dom.domreg',
   'c:\\users\\jesus_castillo\\appdata\\local\\programs\\python\\python37-32\\lib\\xml\\dom\\domreg.py',
   'PYMODULE'),
  ('xml.dom',
   'c:\\users\\jesus_castillo\\appdata\\local\\programs\\python\\python37-32\\lib\\xml\\dom\\__init__.py',
   'PYMODULE'),
  ('html5lib.treebuilders.dom',
   'c:\\users\\jesus_castillo\\appdata\\local\\programs\\python\\python37-32\\lib\\site-packages\\html5lib\\treebuilders\\dom.py',
   'PYMODULE'),
  ('html5lib._utils',
   'c:\\users\\jesus_castillo\\appdata\\local\\programs\\python\\python37-32\\lib\\site-packages\\html5lib\\_utils.py',
   'PYMODULE'),
  ('xml.etree.ElementTree',
   'c:\\users\\jesus_castillo\\appdata\\local\\programs\\python\\python37-32\\lib\\xml\\etree\\ElementTree.py',
   'PYMODULE'),
  ('xml.etree.ElementInclude',
   'c:\\users\\jesus_castillo\\appdata\\local\\programs\\python\\python37-32\\lib\\xml\\etree\\ElementInclude.py',
   'PYMODULE'),
  ('xml.etree.ElementPath',
   'c:\\users\\jesus_castillo\\appdata\\local\\programs\\python\\python37-32\\lib\\xml\\etree\\ElementPath.py',
   'PYMODULE'),
  ('xml.etree',
   'c:\\users\\jesus_castillo\\appdata\\local\\programs\\python\\python37-32\\lib\\xml\\etree\\__init__.py',
   'PYMODULE'),
  ('xml.etree.cElementTree',
   'c:\\users\\jesus_castillo\\appdata\\local\\programs\\python\\python37-32\\lib\\xml\\etree\\cElementTree.py',
   'PYMODULE'),
  ('html5lib.constants',
   'c:\\users\\jesus_castillo\\appdata\\local\\programs\\python\\python37-32\\lib\\site-packages\\html5lib\\constants.py',
   'PYMODULE'),
  ('html5lib',
   'c:\\users\\jesus_castillo\\appdata\\local\\programs\\python\\python37-32\\lib\\site-packages\\html5lib\\__init__.py',
   'PYMODULE'),
  ('html5lib.serializer',
   'c:\\users\\jesus_castillo\\appdata\\local\\programs\\python\\python37-32\\lib\\site-packages\\html5lib\\serializer.py',
   'PYMODULE'),
  ('html5lib.filters.optionaltags',
   'c:\\users\\jesus_castillo\\appdata\\local\\programs\\python\\python37-32\\lib\\site-packages\\html5lib\\filters\\optionaltags.py',
   'PYMODULE'),
  ('html5lib.filters.base',
   'c:\\users\\jesus_castillo\\appdata\\local\\programs\\python\\python37-32\\lib\\site-packages\\html5lib\\filters\\base.py',
   'PYMODULE'),
  ('html5lib.filters',
   'c:\\users\\jesus_castillo\\appdata\\local\\programs\\python\\python37-32\\lib\\site-packages\\html5lib\\filters\\__init__.py',
   'PYMODULE'),
  ('html5lib.filters.sanitizer',
   'c:\\users\\jesus_castillo\\appdata\\local\\programs\\python\\python37-32\\lib\\site-packages\\html5lib\\filters\\sanitizer.py',
   'PYMODULE'),
  ('html5lib.filters.whitespace',
   'c:\\users\\jesus_castillo\\appdata\\local\\programs\\python\\python37-32\\lib\\site-packages\\html5lib\\filters\\whitespace.py',
   'PYMODULE'),
  ('html5lib.filters.alphabeticalattributes',
   'c:\\users\\jesus_castillo\\appdata\\local\\programs\\python\\python37-32\\lib\\site-packages\\html5lib\\filters\\alphabeticalattributes.py',
   'PYMODULE'),
  ('html5lib.filters.inject_meta_charset',
   'c:\\users\\jesus_castillo\\appdata\\local\\programs\\python\\python37-32\\lib\\site-packages\\html5lib\\filters\\inject_meta_charset.py',
   'PYMODULE'),
  ('html5lib.treewalkers',
   'c:\\users\\jesus_castillo\\appdata\\local\\programs\\python\\python37-32\\lib\\site-packages\\html5lib\\treewalkers\\__init__.py',
   'PYMODULE'),
  ('html5lib.treewalkers.etree',
   'c:\\users\\jesus_castillo\\appdata\\local\\programs\\python\\python37-32\\lib\\site-packages\\html5lib\\treewalkers\\etree.py',
   'PYMODULE'),
  ('html5lib.treewalkers.etree_lxml',
   'c:\\users\\jesus_castillo\\appdata\\local\\programs\\python\\python37-32\\lib\\site-packages\\html5lib\\treewalkers\\etree_lxml.py',
   'PYMODULE'),
  ('html5lib.treewalkers.genshi',
   'c:\\users\\jesus_castillo\\appdata\\local\\programs\\python\\python37-32\\lib\\site-packages\\html5lib\\treewalkers\\genshi.py',
   'PYMODULE'),
  ('html5lib.treewalkers.dom',
   'c:\\users\\jesus_castillo\\appdata\\local\\programs\\python\\python37-32\\lib\\site-packages\\html5lib\\treewalkers\\dom.py',
   'PYMODULE'),
  ('html5lib.treewalkers.base',
   'c:\\users\\jesus_castillo\\appdata\\local\\programs\\python\\python37-32\\lib\\site-packages\\html5lib\\treewalkers\\base.py',
   'PYMODULE'),
  ('html5lib.html5parser',
   'c:\\users\\jesus_castillo\\appdata\\local\\programs\\python\\python37-32\\lib\\site-packages\\html5lib\\html5parser.py',
   'PYMODULE'),
  ('html5lib._tokenizer',
   'c:\\users\\jesus_castillo\\appdata\\local\\programs\\python\\python37-32\\lib\\site-packages\\html5lib\\_tokenizer.py',
   'PYMODULE'),
  ('html5lib._trie',
   'c:\\users\\jesus_castillo\\appdata\\local\\programs\\python\\python37-32\\lib\\site-packages\\html5lib\\_trie\\__init__.py',
   'PYMODULE'),
  ('html5lib._trie.datrie',
   'c:\\users\\jesus_castillo\\appdata\\local\\programs\\python\\python37-32\\lib\\site-packages\\html5lib\\_trie\\datrie.py',
   'PYMODULE'),
  ('html5lib._trie._base',
   'c:\\users\\jesus_castillo\\appdata\\local\\programs\\python\\python37-32\\lib\\site-packages\\html5lib\\_trie\\_base.py',
   'PYMODULE'),
  ('html5lib._trie.py',
   'c:\\users\\jesus_castillo\\appdata\\local\\programs\\python\\python37-32\\lib\\site-packages\\html5lib\\_trie\\py.py',
   'PYMODULE'),
  ('html5lib._inputstream',
   'c:\\users\\jesus_castillo\\appdata\\local\\programs\\python\\python37-32\\lib\\site-packages\\html5lib\\_inputstream.py',
   'PYMODULE'),
  ('webencodings',
   'c:\\users\\jesus_castillo\\appdata\\local\\programs\\python\\python37-32\\lib\\site-packages\\webencodings\\__init__.py',
   'PYMODULE'),
  ('webencodings.x_user_defined',
   'c:\\users\\jesus_castillo\\appdata\\local\\programs\\python\\python37-32\\lib\\site-packages\\webencodings\\x_user_defined.py',
   'PYMODULE'),
  ('webencodings.labels',
   'c:\\users\\jesus_castillo\\appdata\\local\\programs\\python\\python37-32\\lib\\site-packages\\webencodings\\labels.py',
   'PYMODULE'),
  ('bs4.builder._htmlparser',
   'c:\\users\\jesus_castillo\\appdata\\local\\programs\\python\\python37-32\\lib\\site-packages\\bs4\\builder\\_htmlparser.py',
   'PYMODULE'),
  ('html.parser',
   'c:\\users\\jesus_castillo\\appdata\\local\\programs\\python\\python37-32\\lib\\html\\parser.py',
   'PYMODULE'),
  ('_markupbase',
   'c:\\users\\jesus_castillo\\appdata\\local\\programs\\python\\python37-32\\lib\\_markupbase.py',
   'PYMODULE'),
  ('tkinter.scrolledtext',
   'c:\\users\\jesus_castillo\\appdata\\local\\programs\\python\\python37-32\\lib\\tkinter\\scrolledtext.py',
   'PYMODULE'),
  ('tkinter.constants',
   'c:\\users\\jesus_castillo\\appdata\\local\\programs\\python\\python37-32\\lib\\tkinter\\constants.py',
   'PYMODULE'),
  ('tkinter.ttk',
   'c:\\users\\jesus_castillo\\appdata\\local\\programs\\python\\python37-32\\lib\\tkinter\\ttk.py',
   'PYMODULE'),
  ('tkinter.messagebox',
   'c:\\users\\jesus_castillo\\appdata\\local\\programs\\python\\python37-32\\lib\\tkinter\\messagebox.py',
   'PYMODULE'),
  ('tkinter.commondialog',
   'c:\\users\\jesus_castillo\\appdata\\local\\programs\\python\\python37-32\\lib\\tkinter\\commondialog.py',
   'PYMODULE'),
  ('tkinter.filedialog',
   'c:\\users\\jesus_castillo\\appdata\\local\\programs\\python\\python37-32\\lib\\tkinter\\filedialog.py',
   'PYMODULE'),
  ('tkinter.dialog',
   'c:\\users\\jesus_castillo\\appdata\\local\\programs\\python\\python37-32\\lib\\tkinter\\dialog.py',
   'PYMODULE'),
  ('tkinter',
   'c:\\users\\jesus_castillo\\appdata\\local\\programs\\python\\python37-32\\lib\\tkinter\\__init__.py',
   'PYMODULE'),
  ('fnmatch',
   'c:\\users\\jesus_castillo\\appdata\\local\\programs\\python\\python37-32\\lib\\fnmatch.py',
   'PYMODULE'),
  ('os',
   'c:\\users\\jesus_castillo\\appdata\\local\\programs\\python\\python37-32\\lib\\os.py',
   'PYMODULE')])
